src/design_test/uart_waves.vcd
$date
	Wed May 20 12:55:23 2026
$end
$version
	QuestaSim Version 10.6c
$end
$timescale
	1ns
$end

$scope module tb_uart $end

$scope task tx_driver $end
$upscope $end

$scope task rx_driver $end
$upscope $end

$scope task rx_glitch $end
$upscope $end

$scope task tx_monitor $end
$upscope $end

$scope task rx_monitor $end
$upscope $end

$scope task tx_scoreboard $end
$upscope $end

$scope task rx_scoreboard $end
$upscope $end

$scope task tx_abort_in_start $end
$upscope $end

$scope task tx_abort_in_sample $end
$upscope $end

$scope task tx_spam_trigger $end
$upscope $end

$scope task rx_framing_error $end
$upscope $end

$scope task rx_force_default $end
$upscope $end

$scope module duv $end

$scope module rec $end
$var reg 2 ! PS [1:0] $end
$upscope $end
$upscope $end

$scope module reff $end

$scope task ref_tx $end
$var reg 8 " input_data [7:0] $end
$var reg 10 # exp_stream [9:0] $end
$upscope $end
$upscope $end
$upscope $end
$enddefinitions $end
#0
$dumpvars
b0 !
bx "
bx #
$end
#4167060
b10100101 "
bx0 #
bx101001010 #
b1101001010 #
#10732310
b1 !
#11149590
b10 !
#14487830
b11 !
#14852950
b0 "
b1000000000 #
b0 !
#19280103
b11111111 "
b1111111110 #
#23746230
b1 !
#24163510
b10 !
#27501750
b11 !
#27866870
b0 !
#27945110
b1 !
#28362390
b10 !
#31700630
b11 !
#32065750
b0 !
#32143990
b1 !
#32561270
b0 !
#34412950
b1 !
#34830230
b10 !
#38168470
b11 !
#38533590
b10000111 "
b1100001110 #
b0 !
#38611830
b1 !
#39029110
b10 !
#42367350
b11 !
#42732470
b0 !
#42960743
b1001011 "
b1010010110 #
#43019350
b1 !
#43436630
b10 !
#46774870
b11 !
#47139990
b0 !
#47368263
b11100010 "
b1111000100 #
#47426870
b1 !
#47844150
b10 !
#51182390
b11 !
#51547510
b0 !
#51775783
b10001 "
b1000100010 #
#56183303
b100010 "
b1001000100 #
#60590823
b110011 "
b1001100110 #
#65760446
b11001100 "
b1110011000 #
#70233150
b1 !
#70650430
b10 !
#73988670
b11 !
#74353790
b0 "
b1000000000 #
b0 !
#74432030
b1 !
#74849310
b10 !
#78187550
b11 !
#78552670
b0 !
